2014-05-16 16:41:34,331 INFO [main,{EventSpyProcessor=389}] org.hudsonci.maven.eventspy_31.handler.MavenExecutionResultHandler - Build failed with exception(s)
2014-05-16 16:41:34,332 INFO [main,{EventSpyProcessor=389}] org.hudsonci.maven.eventspy_31.handler.MavenExecutionResultHandler - [1] org.apache.maven.lifecycle.LifecycleExecutionException: Failed to execute goal org.apache.maven.plugins:maven-surefire-plugin:2.12.4:test (default-test) on project GameMaven: There are test failures.

Please refer to C:\Users\a00165172\Desktop\ASWEGO\lab1_2\GameMaven-master\GameMaven-master\GameMaven\target\surefire-reports for the individual test results.
